{
  "development": {
    "username": "ncyh748idkla8eta",
    "password": "eyv1binkvqewvyf9",
    "database": "hc4f92y3uzc7vp7p",
    "host": "ble5mmo2o5v9oouq.cbetxkdyhwsb.us-east-1.rds.amazonaws.com",
    "dialect": "mysql",
    "pool": {
      "max": 5,
      "min": 0,
      "acquire": 30000,
      "idle": 10000
    }
  },
  "test": {
    "username": "root",
    "password": null,
    "database": "database_test",
    "host": "127.0.0.1",
    "dialect": "mysql"
  },
  "production": {
    "username": "ncyh748idkla8eta",
    "password": "eyv1binkvqewvyf9",
    "database": "hc4f92y3uzc7vp7p",
    "host": "ble5mmo2o5v9oouq.cbetxkdyhwsb.us-east-1.rds.amazonaws.com",
    "dialect": "mysql",
    "pool": {
      "max": 5,
      "min": 0,
      "acquire": 30000,
      "idle": 10000
    }
  }
}